{
  "code": 0,
  "msg": "OK",
  "request_id": "20260313230254490DBAEF806232294A1F",
  "data": {
    "keyword_list": [
      {
        "comment": 0,
        "cost": 105,
        "cpa": 0.01,
        "ctr": 29.13,
        "cvr": 100,
        "impression": 11900,
        "keyword": "train your iq",
        "like": 0,
        "play_six_rate": 97.23,
        "post": 24,
        "post_change": 52,
        "share": 0,
        "video_list": [
          "7600776505513250066",
          "7584888619756817671",
          "7589319764820938002",
          "7605885984688868621",
          "7537191194615418125"
        ]
      },
      {
        "comment": 0,
        "cost": 929,
        "cpa": 48.6,
        "ctr": 88.1,
        "cvr": 0.05,
        "impression": 73500,
        "keyword": "新規登録者限定プレゼント",
        "like": 0,
        "play_six_rate": 95.28,
        "post": 26,
        "post_change": 76.19,
        "share": 0,
        "video_list": [
          "7612964195901967634",
          "7611386097385393416",
          "7614916083199249681",
          "7613436650965847312",
          "7613436663913516289"
        ]
      },
      {
        "comment": 0,
        "cost": 929,
        "cpa": 48.6,
        "ctr": 88.1,
        "cvr": 0.05,
        "impression": 73500,
        "keyword": "限定プレゼント",
        "like": 0,
        "play_six_rate": 95.28,
        "post": 26,
        "post_change": 76.19,
        "share": 0,
        "video_list": [
          "7612964195901967634",
          "7611386097385393416",
          "7614916083199249681",
          "7613436650965847312",
          "7613436663913516289"
        ]
      },
      {
        "comment": 0,
        "cost": 1060,
        "cpa": 1.64,
        "ctr": 28.96,
        "cvr": 3.44,
        "impression": 142000,
        "keyword": "がもらえる",
        "like": 1,
        "play_six_rate": 92.53,
        "post": 31,
        "post_change": 104,
        "share": 0,
        "video_list": [
          "7607283091979128082",
          "7604721552118058247",
          "7607283077194321168",
          "7612918811867532555",
          "7612257494458535175"
        ]
      },
      {
        "comment": 0,
        "cost": 111,
        "cpa": 0.28,
        "ctr": 78.32,
        "cvr": 71.34,
        "impression": 1170,
        "keyword": "in japan",
        "like": 0,
        "play_six_rate": 91.77,
        "post": 52,
        "post_change": 51.22,
        "share": 0,
        "video_list": [
          "7583174657860209932",
          "7609273004547263756",
          "7603340915595414796",
          "7595181303415180545",
          "7596384998001872144"
        ]
      },
      {
        "comment": 0,
        "cost": 142,
        "cpa": 0.28,
        "ctr": 81.19,
        "cvr": 75.01,
        "impression": 1230,
        "keyword": "リサイクル",
        "like": 0,
        "play_six_rate": 88.16,
        "post": 28,
        "post_change": 0,
        "share": 0,
        "video_list": [
          "7592336830964550928",
          "7581164463894564113",
          "7585231445564706049",
          "7587556326637620496",
          "7588869578608905489"
        ]
      },
      {
        "comment": 0,
        "cost": 401,
        "cpa": 0.01,
        "ctr": 26.49,
        "cvr": 100,
        "impression": 27900,
        "keyword": "tap to",
        "like": 0,
        "play_six_rate": 85.47,
        "post": 27,
        "post_change": 89.47,
        "share": 0,
        "video_list": [
          "7583736472629529873",
          "7569869604579806480",
          "7584441360376171793",
          "7602110209183452472",
          "7614037567771544843"
        ]
      },
      {
        "comment": 0,
        "cost": 167,
        "cpa": 56.1,
        "ctr": 28.3,
        "cvr": 0.07,
        "impression": 31600,
        "keyword": "ジュース",
        "like": 9,
        "play_six_rate": 83.82,
        "post": 21,
        "post_change": 183.33,
        "share": 0,
        "video_list": [
          "7599956548919561528",
          "7595869078787476743",
          "7606200802960608523",
          "7606200601608867084",
          "7602136222957341963"
        ]
      },
      {
        "comment": 0,
        "cost": 163,
        "cpa": 78.5,
        "ctr": 27.5,
        "cvr": 0.05,
        "impression": 29600,
        "keyword": "モバイルwi-fi",
        "like": 2,
        "play_six_rate": 81.88,
        "post": 22,
        "post_change": 37.5,
        "share": 0,
        "video_list": [
          "7567513507776761089",
          "7408803028985203985",
          "7527210006173764871",
          "7614055059302649144",
          "7553928982639545612"
        ]
      },
      {
        "comment": 0,
        "cost": 401,
        "cpa": 138,
        "ctr": 21.3,
        "cvr": 0.07,
        "impression": 40900,
        "keyword": "コーヒー",
        "like": 18,
        "play_six_rate": 81.72,
        "post": 39,
        "post_change": 97.22,
        "share": 1,
        "video_list": [
          "7606548855844293899",
          "7615389435085049104",
          "7610645685230259472",
          "7612850848812502283",
          "7615505338212699410"
        ]
      },
      {
        "comment": 1,
        "cost": 813,
        "cpa": 0.03,
        "ctr": 28.06,
        "cvr": 91.19,
        "impression": 402000,
        "keyword": "ファンデ",
        "like": 69,
        "play_six_rate": 81.27,
        "post": 29,
        "post_change": 64.71,
        "share": 1,
        "video_list": [
          "7612974843109166354",
          "7606660659190713620",
          "7576609328589835541",
          "7612592906175548728",
          "7612952936993312018"
        ]
      },
      {
        "comment": 0,
        "cost": 1040,
        "cpa": 0.26,
        "ctr": 89.99,
        "cvr": 84.04,
        "impression": 9510,
        "keyword": "老人ホーム",
        "like": 0,
        "play_six_rate": 80.96,
        "post": 27,
        "post_change": 70.83,
        "share": 0,
        "video_list": [
          "7585839126683946248",
          "7602233900756110604",
          "7603634188234919179",
          "7581561256474086673",
          "7582642717642001681"
        ]
      },
      {
        "comment": 0,
        "cost": 1040,
        "cpa": 0.26,
        "ctr": 89.99,
        "cvr": 84.04,
        "impression": 9510,
        "keyword": "老人ホームの仕事",
        "like": 0,
        "play_six_rate": 80.96,
        "post": 27,
        "post_change": 73.91,
        "share": 0,
        "video_list": [
          "7602233900756110604",
          "7603634188234919179",
          "7581561256474086673",
          "7582642717642001681",
          "7610646801103785272"
        ]
      },
      {
        "comment": 3,
        "cost": 636,
        "cpa": 8.01,
        "ctr": 2.8,
        "cvr": 2.21,
        "impression": 279000,
        "keyword": "ダウンロードして",
        "like": 28,
        "play_six_rate": 80.24,
        "post": 50,
        "post_change": 70.69,
        "share": 0,
        "video_list": [
          "7610998157538774283",
          "7572032242139139329",
          "7610677927629393208",
          "7579949394770840833",
          "7608466023859129611"
        ]
      },
      {
        "comment": 0,
        "cost": 98,
        "cpa": 50.5,
        "ctr": 26.6,
        "cvr": 0.17,
        "impression": 9100,
        "keyword": "をチェックして",
        "like": 1,
        "play_six_rate": 79.71,
        "post": 20,
        "post_change": 83.33,
        "share": 0,
        "video_list": [
          "7608878838323481868",
          "7608975672605691148",
          "7609276142209584440",
          "7564358250292989204",
          "7610425614033505592"
        ]
      },
      {
        "comment": 0,
        "cost": 174,
        "cpa": 0.03,
        "ctr": 5.54,
        "cvr": 100,
        "impression": 146000,
        "keyword": "free to play",
        "like": 8,
        "play_six_rate": 76.46,
        "post": 31,
        "post_change": 25.71,
        "share": 0,
        "video_list": [
          "7592161293327486215",
          "7591383405800049938",
          "7583736472629529873",
          "7577057138191699201",
          "7574163751138594049"
        ]
      },
      {
        "comment": 0,
        "cost": 148,
        "cpa": 34.8,
        "ctr": 23.09,
        "cvr": 0.63,
        "impression": 5700,
        "keyword": "本当に0円",
        "like": 3,
        "play_six_rate": 75.36,
        "post": 22,
        "post_change": 600,
        "share": 0,
        "video_list": [
          "7601538154490891576",
          "7592199079417908481",
          "7608550488757259532",
          "7613285088150785336",
          "7613297397346716984"
        ]
      },
      {
        "comment": 0,
        "cost": 178,
        "cpa": 47.2,
        "ctr": 2.06,
        "cvr": 0.18,
        "impression": 241000,
        "keyword": "タワーディフェンス",
        "like": 48,
        "play_six_rate": 73.46,
        "post": 24,
        "post_change": 92.86,
        "share": 0,
        "video_list": [
          "7610758577438919949",
          "7612482769083583758",
          "7614844995991850258",
          "7610758570438659341",
          "7612525808107654414"
        ]
      },
      {
        "comment": 0,
        "cost": 1660,
        "cpa": 12.3,
        "ctr": 6.16,
        "cvr": 1.06,
        "impression": 442000,
        "keyword": "マンガ",
        "like": 139,
        "play_six_rate": 73.25,
        "post": 69,
        "post_change": 54.35,
        "share": 0,
        "video_list": [
          "7615502243336342802",
          "7588086143044963605",
          "7610680228456697095",
          "7571006172858158352",
          "7546512708934405383"
        ]
      },
      {
        "comment": 0,
        "cost": 136,
        "cpa": 0.01,
        "ctr": 23.82,
        "cvr": 100,
        "impression": 12400,
        "keyword": "try now",
        "like": 1,
        "play_six_rate": 71.65,
        "post": 33,
        "post_change": 44.78,
        "share": 0,
        "video_list": [
          "7589226886560156946",
          "7584441360376171793",
          "7567042840719592721",
          "7614037567771544843",
          "7615217231940701441"
        ]
      }
    ],
    "pagination": {
      "page": 1,
      "size": 20,
      "total": 113,
      "has_more": true
    }
  }
}
