{
  "code": 0,
  "msg": "OK",
  "request_id": "20260313232616482B7AC4A4506B24F788",
  "data": {
    "list": [
      {
        "hashtag_id": "3286830",
        "hashtag_name": "wbc",
        "country_info": {
          "id": "JP",
          "value": "Japan",
          "label": "JP"
        },
        "industry_info": {
          "id": 28000000000,
          "value": "Sports \u0026 Outdoor",
          "label": "label_28000000000"
        },
        "is_promoted": false,
        "trend": [
          {
            "time": 1770768000,
            "value": 0.1
          },
          {
            "time": 1770854400,
            "value": 0.14
          },
          {
            "time": 1770940800,
            "value": 0.12
          },
          {
            "time": 1771027200,
            "value": 0.15
          },
          {
            "time": 1771113600,
            "value": 0.14
          },
          {
            "time": 1771200000,
            "value": 0.13
          },
          {
            "time": 1771286400,
            "value": 0.1
          },
          {
            "time": 1771372800,
            "value": 0.11
          },
          {
            "time": 1771459200,
            "value": 0.12
          },
          {
            "time": 1771545600,
            "value": 0.12
          },
          {
            "time": 1771632000,
            "value": 0.14
          },
          {
            "time": 1771718400,
            "value": 0.14
          },
          {
            "time": 1771804800,
            "value": 0.18
          },
          {
            "time": 1771891200,
            "value": 0.19
          },
          {
            "time": 1771977600,
            "value": 0.2
          },
          {
            "time": 1772064000,
            "value": 0.18
          },
          {
            "time": 1772150400,
            "value": 0.22
          },
          {
            "time": 1772236800,
            "value": 0.32
          },
          {
            "time": 1772323200,
            "value": 0.34
          },
          {
            "time": 1772409600,
            "value": 0.31
          },
          {
            "time": 1772496000,
            "value": 0.38
          },
          {
            "time": 1772582400,
            "value": 0.42
          },
          {
            "time": 1772668800,
            "value": 0.38
          },
          {
            "time": 1772755200,
            "value": 0.42
          },
          {
            "time": 1772841600,
            "value": 0.86
          },
          {
            "time": 1772928000,
            "value": 1
          },
          {
            "time": 1773014400,
            "value": 0.98
          },
          {
            "time": 1773100800,
            "value": 0.71
          },
          {
            "time": 1773187200,
            "value": 0.83
          },
          {
            "time": 1773273600,
            "value": 0.69
          }
        ],
        "publish_cnt": 17587,
        "video_views": 484127417,
        "rank": 1,
        "rank_diff": 0,
        "rank_diff_type": 2
      },
      {
        "hashtag_id": "20550",
        "hashtag_name": "relax",
        "country_info": {
          "id": "JP",
          "value": "Japan",
          "label": "JP"
        },
        "is_promoted": false,
        "trend": [
          {
            "time": 1770768000,
            "value": 0.27
          },
          {
            "time": 1770854400,
            "value": 0.28
          },
          {
            "time": 1770940800,
            "value": 0.26
          },
          {
            "time": 1771027200,
            "value": 0.27
          },
          {
            "time": 1771113600,
            "value": 0.27
          },
          {
            "time": 1771200000,
            "value": 0.31
          },
          {
            "time": 1771286400,
            "value": 0.26
          },
          {
            "time": 1771372800,
            "value": 0.26
          },
          {
            "time": 1771459200,
            "value": 0.27
          },
          {
            "time": 1771545600,
            "value": 0.28
          },
          {
            "time": 1771632000,
            "value": 0.25
          },
          {
            "time": 1771718400,
            "value": 0.27
          },
          {
            "time": 1771804800,
            "value": 0.26
          },
          {
            "time": 1771891200,
            "value": 0.3
          },
          {
            "time": 1771977600,
            "value": 0.28
          },
          {
            "time": 1772064000,
            "value": 0.28
          },
          {
            "time": 1772150400,
            "value": 0.25
          },
          {
            "time": 1772236800,
            "value": 0.24
          },
          {
            "time": 1772323200,
            "value": 0.25
          },
          {
            "time": 1772409600,
            "value": 0.28
          },
          {
            "time": 1772496000,
            "value": 0.26
          },
          {
            "time": 1772582400,
            "value": 0.26
          },
          {
            "time": 1772668800,
            "value": 0.24
          },
          {
            "time": 1772755200,
            "value": 0.24
          },
          {
            "time": 1772841600,
            "value": 0.56
          },
          {
            "time": 1772928000,
            "value": 0.92
          },
          {
            "time": 1773014400,
            "value": 1
          },
          {
            "time": 1773100800,
            "value": 0.9
          },
          {
            "time": 1773187200,
            "value": 0.56
          },
          {
            "time": 1773273600,
            "value": 0.63
          }
        ],
        "publish_cnt": 9517,
        "video_views": 44506276,
        "rank": 2,
        "rank_diff": 0,
        "rank_diff_type": 2
      },
      {
        "hashtag_id": "7442584908695863342",
        "hashtag_name": "liveincentiveprogram",
        "country_info": {
          "id": "JP",
          "value": "Japan",
          "label": "JP"
        },
        "is_promoted": false,
        "trend": [
          {
            "time": 1770768000,
            "value": 0.15
          },
          {
            "time": 1770854400,
            "value": 0.2
          },
          {
            "time": 1770940800,
            "value": 0.2
          },
          {
            "time": 1771027200,
            "value": 0.19
          },
          {
            "time": 1771113600,
            "value": 0.22
          },
          {
            "time": 1771200000,
            "value": 0.2
          },
          {
            "time": 1771286400,
            "value": 0.18
          },
          {
            "time": 1771372800,
            "value": 0.17
          },
          {
            "time": 1771459200,
            "value": 0.18
          },
          {
            "time": 1771545600,
            "value": 0.19
          },
          {
            "time": 1771632000,
            "value": 0.23
          },
          {
            "time": 1771718400,
            "value": 0.19
          },
          {
            "time": 1771804800,
            "value": 0.19
          },
          {
            "time": 1771891200,
            "value": 0.24
          },
          {
            "time": 1771977600,
            "value": 0.24
          },
          {
            "time": 1772064000,
            "value": 0.23
          },
          {
            "time": 1772150400,
            "value": 0.21
          },
          {
            "time": 1772236800,
            "value": 0.26
          },
          {
            "time": 1772323200,
            "value": 0.21
          },
          {
            "time": 1772409600,
            "value": 0.25
          },
          {
            "time": 1772496000,
            "value": 0.27
          },
          {
            "time": 1772582400,
            "value": 0.32
          },
          {
            "time": 1772668800,
            "value": 0.35
          },
          {
            "time": 1772755200,
            "value": 0.36
          },
          {
            "time": 1772841600,
            "value": 0.52
          },
          {
            "time": 1772928000,
            "value": 0.75
          },
          {
            "time": 1773014400,
            "value": 0.52
          },
          {
            "time": 1773100800,
            "value": 0.64
          },
          {
            "time": 1773187200,
            "value": 1
          },
          {
            "time": 1773273600,
            "value": 0.29
          }
        ],
        "creators": [
          {
            "nick_name": "ff_dalary 💗✨",
            "avatar_url": "https://p16-sign-sg.tiktokcdn.com/tos-alisg-avt-0068/7b1736eca902948f536bbd92966c8edb~tplv-tiktokx-cropcenter:100:100.png?dr=14579\u0026refresh_token=9fd39914\u0026x-expires=1773586800\u0026x-signature=YP8cvGUrUyEpEO%2BviQB2zNSMqCI%3D\u0026t=4d5b0474\u0026ps=13740610\u0026shp=a5d48078\u0026shcp=317596d8\u0026idc=my3"
          }
        ],
        "publish_cnt": 4532,
        "video_views": 47437445,
        "rank": 3,
        "rank_diff_type": 4
      }
    ],
    "pagination": {
      "page": 1,
      "size": 3,
      "total": 100,
      "has_more": true
    }
  }
}
