{
  "code": 0,
  "msg": "OK",
  "request_id": "202603132326245F0833E620585D1193F6",
  "data": {
    "list": [
      {
        "hashtag_id": "23629",
        "hashtag_name": "graduation",
        "country_info": {
          "id": "JP",
          "value": "Japan",
          "label": "JP"
        },
        "industry_info": {
          "id": 10000000000,
          "value": "Education",
          "label": "label_10000000000"
        },
        "is_promoted": false,
        "trend": [
          {
            "time": 1770768000,
            "value": 0.11
          },
          {
            "time": 1770854400,
            "value": 0.14
          },
          {
            "time": 1770940800,
            "value": 0.11
          },
          {
            "time": 1771027200,
            "value": 0.12
          },
          {
            "time": 1771113600,
            "value": 0.1
          },
          {
            "time": 1771200000,
            "value": 0.12
          },
          {
            "time": 1771286400,
            "value": 0.07
          },
          {
            "time": 1771372800,
            "value": 0.08
          },
          {
            "time": 1771459200,
            "value": 0.12
          },
          {
            "time": 1771545600,
            "value": 0.11
          },
          {
            "time": 1771632000,
            "value": 0.17
          },
          {
            "time": 1771718400,
            "value": 0.15
          },
          {
            "time": 1771804800,
            "value": 0.15
          },
          {
            "time": 1771891200,
            "value": 0.1
          },
          {
            "time": 1771977600,
            "value": 0.15
          },
          {
            "time": 1772064000,
            "value": 0.17
          },
          {
            "time": 1772150400,
            "value": 0.19
          },
          {
            "time": 1772236800,
            "value": 0.25
          },
          {
            "time": 1772323200,
            "value": 0.31
          },
          {
            "time": 1772409600,
            "value": 0.35
          },
          {
            "time": 1772496000,
            "value": 0.39
          },
          {
            "time": 1772582400,
            "value": 0.59
          },
          {
            "time": 1772668800,
            "value": 0.58
          },
          {
            "time": 1772755200,
            "value": 0.62
          },
          {
            "time": 1772841600,
            "value": 0.85
          },
          {
            "time": 1772928000,
            "value": 0.72
          },
          {
            "time": 1773014400,
            "value": 0.51
          },
          {
            "time": 1773100800,
            "value": 0.6
          },
          {
            "time": 1773187200,
            "value": 0.77
          },
          {
            "time": 1773273600,
            "value": 1
          }
        ],
        "creators": [
          {
            "nick_name": "Babi 💋",
            "avatar_url": "https://p77-sign-sg.tiktokcdn.com/tos-alisg-avt-0068/6710172313c5c05fa99256ca558c402e~tplv-tiktokx-cropcenter:100:100.png?dr=14579\u0026refresh_token=a52bef3b\u0026x-expires=1773586800\u0026x-signature=l6aeROU2xPCRAXu3b6YzSmUYKiQ%3D\u0026t=4d5b0474\u0026ps=13740610\u0026shp=a5d48078\u0026shcp=317596d8\u0026idc=my2"
          },
          {
            "nick_name": "taweni💌🤍🎧",
            "avatar_url": "https://p16-sign-sg.tiktokcdn.com/tos-alisg-avt-0068/bb6d9a537b4ed6900750f7ff2a964538~tplv-tiktokx-cropcenter:100:100.png?dr=14579\u0026refresh_token=e97779e3\u0026x-expires=1773586800\u0026x-signature=HIjaeGBld23Hu2RST7FIbUKdF8Y%3D\u0026t=4d5b0474\u0026ps=13740610\u0026shp=a5d48078\u0026shcp=317596d8\u0026idc=my2"
          }
        ],
        "publish_cnt": 2247,
        "video_views": 22893653,
        "rank": 13,
        "rank_diff": 2,
        "rank_diff_type": 3
      },
      {
        "hashtag_id": "87302845",
        "hashtag_name": "もんた",
        "country_info": {
          "id": "JP",
          "value": "Japan",
          "label": "JP"
        },
        "is_promoted": false,
        "trend": [
          {
            "time": 1770768000,
            "value": 0.23
          },
          {
            "time": 1770854400,
            "value": 0.32
          },
          {
            "time": 1770940800,
            "value": 0.25
          },
          {
            "time": 1771027200,
            "value": 0.22
          },
          {
            "time": 1771113600,
            "value": 0.29
          },
          {
            "time": 1771200000,
            "value": 0.3
          },
          {
            "time": 1771286400,
            "value": 0.28
          },
          {
            "time": 1771372800,
            "value": 0.3
          },
          {
            "time": 1771459200,
            "value": 0.33
          },
          {
            "time": 1771545600,
            "value": 0.3
          },
          {
            "time": 1771632000,
            "value": 0.3
          },
          {
            "time": 1771718400,
            "value": 0.3
          },
          {
            "time": 1771804800,
            "value": 0.28
          },
          {
            "time": 1771891200,
            "value": 0.28
          },
          {
            "time": 1771977600,
            "value": 0.23
          },
          {
            "time": 1772064000,
            "value": 0.26
          },
          {
            "time": 1772150400,
            "value": 0.18
          },
          {
            "time": 1772236800,
            "value": 0.25
          },
          {
            "time": 1772323200,
            "value": 0.22
          },
          {
            "time": 1772409600,
            "value": 0.21
          },
          {
            "time": 1772496000,
            "value": 0.2
          },
          {
            "time": 1772582400,
            "value": 0.17
          },
          {
            "time": 1772668800,
            "value": 0.16
          },
          {
            "time": 1772755200,
            "value": 0.18
          },
          {
            "time": 1772841600,
            "value": 0.33
          },
          {
            "time": 1772928000,
            "value": 0.89
          },
          {
            "time": 1773014400,
            "value": 1
          },
          {
            "time": 1773100800,
            "value": 0.77
          },
          {
            "time": 1773187200,
            "value": 0.7
          },
          {
            "time": 1773273600,
            "value": 0.59
          }
        ],
        "publish_cnt": 1001,
        "video_views": 39266052,
        "rank": 14,
        "rank_diff": 2,
        "rank_diff_type": 3
      },
      {
        "hashtag_id": "7585179167202017300",
        "hashtag_name": "カジュアルレディースシューズ",
        "country_info": {
          "id": "JP",
          "value": "Japan",
          "label": "JP"
        },
        "industry_info": {
          "id": 22000000000,
          "value": "Apparel \u0026 Accessories",
          "label": "label_22000000000"
        },
        "is_promoted": false,
        "trend": [
          {
            "time": 1770768000,
            "value": 0.04
          },
          {
            "time": 1770854400,
            "value": 0.04
          },
          {
            "time": 1770940800,
            "value": 0.04
          },
          {
            "time": 1771027200,
            "value": 0.13
          },
          {
            "time": 1771113600,
            "value": 0.19
          },
          {
            "time": 1771200000,
            "value": 0.31
          },
          {
            "time": 1771286400,
            "value": 0.22
          },
          {
            "time": 1771372800,
            "value": 0.36
          },
          {
            "time": 1771459200,
            "value": 0.19
          },
          {
            "time": 1771545600,
            "value": 0.31
          },
          {
            "time": 1771632000,
            "value": 0.35
          },
          {
            "time": 1771718400,
            "value": 0.62
          },
          {
            "time": 1771804800,
            "value": 0.58
          },
          {
            "time": 1771891200,
            "value": 0.7
          },
          {
            "time": 1771977600,
            "value": 0.69
          },
          {
            "time": 1772064000,
            "value": 0.87
          },
          {
            "time": 1772150400,
            "value": 0.87
          },
          {
            "time": 1772236800,
            "value": 0.66
          },
          {
            "time": 1772323200,
            "value": 0.55
          },
          {
            "time": 1772409600,
            "value": 0.65
          },
          {
            "time": 1772496000,
            "value": 0.63
          },
          {
            "time": 1772582400,
            "value": 0.79
          },
          {
            "time": 1772668800,
            "value": 0.82
          },
          {
            "time": 1772755200,
            "value": 0.86
          },
          {
            "time": 1772841600,
            "value": 0.62
          },
          {
            "time": 1772928000,
            "value": 1
          },
          {
            "time": 1773014400,
            "value": 0.94
          },
          {
            "time": 1773100800,
            "value": 0.99
          },
          {
            "time": 1773187200,
            "value": 0.86
          },
          {
            "time": 1773273600,
            "value": 0.83
          }
        ],
        "publish_cnt": 4770,
        "video_views": 3943126,
        "rank": 15,
        "rank_diff": 2,
        "rank_diff_type": 3
      }
    ],
    "pagination": {
      "page": 5,
      "size": 3,
      "total": 100,
      "has_more": true
    }
  }
}
