{
  "code": 0,
  "msg": "OK",
  "request_id": "20260313232618285E0F543196AC276E19",
  "data": {
    "list": [
      {
        "hashtag_id": "29724591",
        "hashtag_name": "3月9日",
        "country_info": {
          "id": "JP",
          "value": "Japan",
          "label": "JP"
        },
        "is_promoted": false,
        "trend": [
          {
            "time": 1770768000,
            "value": 0.06
          },
          {
            "time": 1770854400,
            "value": 0.05
          },
          {
            "time": 1770940800,
            "value": 0.05
          },
          {
            "time": 1771027200,
            "value": 0.05
          },
          {
            "time": 1771113600,
            "value": 0.06
          },
          {
            "time": 1771200000,
            "value": 0.05
          },
          {
            "time": 1771286400,
            "value": 0.06
          },
          {
            "time": 1771372800,
            "value": 0.05
          },
          {
            "time": 1771459200,
            "value": 0.05
          },
          {
            "time": 1771545600,
            "value": 0.06
          },
          {
            "time": 1771632000,
            "value": 0.08
          },
          {
            "time": 1771718400,
            "value": 0.07
          },
          {
            "time": 1771804800,
            "value": 0.06
          },
          {
            "time": 1771891200,
            "value": 0.08
          },
          {
            "time": 1771977600,
            "value": 0.06
          },
          {
            "time": 1772064000,
            "value": 0.06
          },
          {
            "time": 1772150400,
            "value": 0.07
          },
          {
            "time": 1772236800,
            "value": 0.1
          },
          {
            "time": 1772323200,
            "value": 0.13
          },
          {
            "time": 1772409600,
            "value": 0.17
          },
          {
            "time": 1772496000,
            "value": 0.16
          },
          {
            "time": 1772582400,
            "value": 0.16
          },
          {
            "time": 1772668800,
            "value": 0.14
          },
          {
            "time": 1772755200,
            "value": 0.17
          },
          {
            "time": 1772841600,
            "value": 0.22
          },
          {
            "time": 1772928000,
            "value": 0.22
          },
          {
            "time": 1773014400,
            "value": 0.36
          },
          {
            "time": 1773100800,
            "value": 1
          },
          {
            "time": 1773187200,
            "value": 0.35
          },
          {
            "time": 1773273600,
            "value": 0.28
          }
        ],
        "publish_cnt": 3806,
        "video_views": 27366115,
        "rank": 4,
        "rank_diff": 1,
        "rank_diff_type": 3
      },
      {
        "hashtag_id": "1680090902821890",
        "hashtag_name": "スウェットシャツ",
        "country_info": {
          "id": "JP",
          "value": "Japan",
          "label": "JP"
        },
        "industry_info": {
          "id": 22000000000,
          "value": "Apparel \u0026 Accessories",
          "label": "label_22000000000"
        },
        "is_promoted": false,
        "trend": [
          {
            "time": 1770768000,
            "value": 0.1
          },
          {
            "time": 1770854400,
            "value": 0.13
          },
          {
            "time": 1770940800,
            "value": 0.09
          },
          {
            "time": 1771027200,
            "value": 0.14
          },
          {
            "time": 1771113600,
            "value": 0.22
          },
          {
            "time": 1771200000,
            "value": 0.14
          },
          {
            "time": 1771286400,
            "value": 0.26
          },
          {
            "time": 1771372800,
            "value": 0.25
          },
          {
            "time": 1771459200,
            "value": 0.17
          },
          {
            "time": 1771545600,
            "value": 0.33
          },
          {
            "time": 1771632000,
            "value": 0.41
          },
          {
            "time": 1771718400,
            "value": 0.62
          },
          {
            "time": 1771804800,
            "value": 0.6
          },
          {
            "time": 1771891200,
            "value": 0.73
          },
          {
            "time": 1771977600,
            "value": 0.7
          },
          {
            "time": 1772064000,
            "value": 0.78
          },
          {
            "time": 1772150400,
            "value": 0.74
          },
          {
            "time": 1772236800,
            "value": 0.65
          },
          {
            "time": 1772323200,
            "value": 0.61
          },
          {
            "time": 1772409600,
            "value": 0.65
          },
          {
            "time": 1772496000,
            "value": 0.69
          },
          {
            "time": 1772582400,
            "value": 0.78
          },
          {
            "time": 1772668800,
            "value": 0.77
          },
          {
            "time": 1772755200,
            "value": 0.84
          },
          {
            "time": 1772841600,
            "value": 0.49
          },
          {
            "time": 1772928000,
            "value": 1
          },
          {
            "time": 1773014400,
            "value": 0.91
          },
          {
            "time": 1773100800,
            "value": 0.91
          },
          {
            "time": 1773187200,
            "value": 0.82
          },
          {
            "time": 1773273600,
            "value": 0.85
          }
        ],
        "publish_cnt": 11124,
        "video_views": 6450138,
        "rank": 5,
        "rank_diff": 1,
        "rank_diff_type": 3
      },
      {
        "hashtag_id": "7070208824828919810",
        "hashtag_name": "メンズスポーツシューズ",
        "country_info": {
          "id": "JP",
          "value": "Japan",
          "label": "JP"
        },
        "industry_info": {
          "id": 22000000000,
          "value": "Apparel \u0026 Accessories",
          "label": "label_22000000000"
        },
        "is_promoted": false,
        "trend": [
          {
            "time": 1770768000,
            "value": 0.61
          },
          {
            "time": 1770854400,
            "value": 0.72
          },
          {
            "time": 1770940800,
            "value": 0.57
          },
          {
            "time": 1771027200,
            "value": 0.64
          },
          {
            "time": 1771113600,
            "value": 0.6
          },
          {
            "time": 1771200000,
            "value": 0.61
          },
          {
            "time": 1771286400,
            "value": 0.49
          },
          {
            "time": 1771372800,
            "value": 0.49
          },
          {
            "time": 1771459200,
            "value": 0.44
          },
          {
            "time": 1771545600,
            "value": 0.43
          },
          {
            "time": 1771632000,
            "value": 0.77
          },
          {
            "time": 1771718400,
            "value": 0.71
          },
          {
            "time": 1771804800,
            "value": 0.7
          },
          {
            "time": 1771891200,
            "value": 0.85
          },
          {
            "time": 1771977600,
            "value": 0.83
          },
          {
            "time": 1772064000,
            "value": 0.86
          },
          {
            "time": 1772150400,
            "value": 0.83
          },
          {
            "time": 1772236800,
            "value": 0.72
          },
          {
            "time": 1772323200,
            "value": 0.7
          },
          {
            "time": 1772409600,
            "value": 0.71
          },
          {
            "time": 1772496000,
            "value": 0.71
          },
          {
            "time": 1772582400,
            "value": 0.84
          },
          {
            "time": 1772668800,
            "value": 0.83
          },
          {
            "time": 1772755200,
            "value": 0.86
          },
          {
            "time": 1772841600,
            "value": 0.67
          },
          {
            "time": 1772928000,
            "value": 1
          },
          {
            "time": 1773014400,
            "value": 0.89
          },
          {
            "time": 1773100800,
            "value": 0.88
          },
          {
            "time": 1773187200,
            "value": 0.78
          },
          {
            "time": 1773273600,
            "value": 0.83
          }
        ],
        "publish_cnt": 6783,
        "video_views": 9281423,
        "rank": 6,
        "rank_diff": 0,
        "rank_diff_type": 2
      }
    ],
    "pagination": {
      "page": 2,
      "size": 3,
      "total": 100,
      "has_more": true
    }
  }
}
