{
  "code": 0,
  "msg": "OK",
  "request_id": "20260313230746982DCB51C1C97A7E2FD2",
  "data": {
    "list": [
      {
        "hashtag_id": "12417446",
        "hashtag_name": "earwax",
        "country_info": {
          "id": "JP",
          "value": "Japan",
          "label": "JP"
        },
        "industry_info": {
          "id": 28000000000,
          "value": "Sports \u0026 Outdoor",
          "label": "label_28000000000"
        },
        "is_promoted": false,
        "trend": [
          {
            "time": 1772755200,
            "value": 0.05
          },
          {
            "time": 1772841600,
            "value": 0.09
          },
          {
            "time": 1772928000,
            "value": 0.07
          },
          {
            "time": 1773014400,
            "value": 0.05
          },
          {
            "time": 1773100800,
            "value": 0.06
          },
          {
            "time": 1773187200,
            "value": 1
          },
          {
            "time": 1773273600,
            "value": 0.78
          }
        ],
        "publish_cnt": 1482,
        "video_views": 1568240,
        "rank": 21,
        "rank_diff_type": 4
      },
      {
        "hashtag_id": "1588018966696961",
        "hashtag_name": "そうまくん",
        "country_info": {
          "id": "JP",
          "value": "Japan",
          "label": "JP"
        },
        "is_promoted": false,
        "trend": [
          {
            "time": 1772755200,
            "value": 0.69
          },
          {
            "time": 1772841600,
            "value": 0.75
          },
          {
            "time": 1772928000,
            "value": 0.61
          },
          {
            "time": 1773014400,
            "value": 0.65
          },
          {
            "time": 1773100800,
            "value": 0.81
          },
          {
            "time": 1773187200,
            "value": 1
          },
          {
            "time": 1773273600,
            "value": 0.53
          }
        ],
        "publish_cnt": 1667,
        "video_views": 3877870,
        "rank": 22,
        "rank_diff_type": 4
      },
      {
        "hashtag_id": "73503831",
        "hashtag_name": "earwaxremoval",
        "country_info": {
          "id": "JP",
          "value": "Japan",
          "label": "JP"
        },
        "industry_info": {
          "id": 28000000000,
          "value": "Sports \u0026 Outdoor",
          "label": "label_28000000000"
        },
        "is_promoted": false,
        "trend": [
          {
            "time": 1772755200,
            "value": 0.05
          },
          {
            "time": 1772841600,
            "value": 0.05
          },
          {
            "time": 1772928000,
            "value": 0.05
          },
          {
            "time": 1773014400,
            "value": 0.05
          },
          {
            "time": 1773100800,
            "value": 0.04
          },
          {
            "time": 1773187200,
            "value": 1
          },
          {
            "time": 1773273600,
            "value": 0.79
          }
        ],
        "publish_cnt": 1471,
        "video_views": 1288634,
        "rank": 23,
        "rank_diff_type": 4
      },
      {
        "hashtag_id": "1599163184670722",
        "hashtag_name": "foodtiktok",
        "country_info": {
          "id": "JP",
          "value": "Japan",
          "label": "JP"
        },
        "industry_info": {
          "id": 27000000000,
          "value": "Food \u0026 Beverage",
          "label": "label_27000000000"
        },
        "is_promoted": false,
        "trend": [
          {
            "time": 1772755200,
            "value": 0.71
          },
          {
            "time": 1772841600,
            "value": 0.77
          },
          {
            "time": 1772928000,
            "value": 0.79
          },
          {
            "time": 1773014400,
            "value": 0.39
          },
          {
            "time": 1773100800,
            "value": 0.74
          },
          {
            "time": 1773187200,
            "value": 1
          },
          {
            "time": 1773273600,
            "value": 0.69
          }
        ],
        "creators": [
          {
            "nick_name": "Grazi Eats",
            "avatar_url": "https://p16-sign-va.tiktokcdn.com/tos-maliva-avt-0068/27d5740985b285ad503aef91d73ee807~tplv-tiktokx-cropcenter:100:100.png?dr=14579\u0026refresh_token=9d26777f\u0026x-expires=1773586800\u0026x-signature=NF2hxhwsZ1c7Gj2hmCaY%2FZ78xSE%3D\u0026t=4d5b0474\u0026ps=13740610\u0026shp=a5d48078\u0026shcp=317596d8\u0026idc=my3"
          },
          {
            "nick_name": "Poe Poe Zayar",
            "avatar_url": "https://p16-sign-sg.tiktokcdn.com/tos-alisg-avt-0068/0b7132c192ce37a76f68d8169403d3a6~tplv-tiktokx-cropcenter:100:100.png?dr=14579\u0026refresh_token=09ff64f8\u0026x-expires=1773586800\u0026x-signature=%2FKOXCvjuRYRNquYsNMtz25q%2BysE%3D\u0026t=4d5b0474\u0026ps=13740610\u0026shp=a5d48078\u0026shcp=317596d8\u0026idc=my3"
          }
        ],
        "publish_cnt": 1604,
        "video_views": 6623793,
        "rank": 24,
        "rank_diff_type": 4
      },
      {
        "hashtag_id": "97320",
        "hashtag_name": "ear",
        "country_info": {
          "id": "JP",
          "value": "Japan",
          "label": "JP"
        },
        "industry_info": {
          "id": 15000000000,
          "value": "Tech \u0026 Electronics",
          "label": "label_15000000000"
        },
        "is_promoted": false,
        "trend": [
          {
            "time": 1772755200,
            "value": 0.09
          },
          {
            "time": 1772841600,
            "value": 0.05
          },
          {
            "time": 1772928000,
            "value": 0.05
          },
          {
            "time": 1773014400,
            "value": 0.05
          },
          {
            "time": 1773100800,
            "value": 0.04
          },
          {
            "time": 1773187200,
            "value": 1
          },
          {
            "time": 1773273600,
            "value": 0.8
          }
        ],
        "publish_cnt": 1475,
        "video_views": 1201959,
        "rank": 25,
        "rank_diff_type": 4
      },
      {
        "hashtag_id": "180620",
        "hashtag_name": "clear",
        "country_info": {
          "id": "JP",
          "value": "Japan",
          "label": "JP"
        },
        "is_promoted": false,
        "trend": [
          {
            "time": 1772755200,
            "value": 0.09
          },
          {
            "time": 1772841600,
            "value": 0.11
          },
          {
            "time": 1772928000,
            "value": 0.07
          },
          {
            "time": 1773014400,
            "value": 0.1
          },
          {
            "time": 1773100800,
            "value": 0.08
          },
          {
            "time": 1773187200,
            "value": 1
          },
          {
            "time": 1773273600,
            "value": 0.81
          }
        ],
        "publish_cnt": 1495,
        "video_views": 908413,
        "rank": 26,
        "rank_diff_type": 4
      },
      {
        "hashtag_id": "47371",
        "hashtag_name": "countrylife",
        "country_info": {
          "id": "JP",
          "value": "Japan",
          "label": "JP"
        },
        "industry_info": {
          "id": 19000000000,
          "value": "Pets",
          "label": "label_19000000000"
        },
        "is_promoted": false,
        "trend": [
          {
            "time": 1772755200,
            "value": 0.05
          },
          {
            "time": 1772841600,
            "value": 0.07
          },
          {
            "time": 1772928000,
            "value": 0.11
          },
          {
            "time": 1773014400,
            "value": 0.07
          },
          {
            "time": 1773100800,
            "value": 0.33
          },
          {
            "time": 1773187200,
            "value": 0.87
          },
          {
            "time": 1773273600,
            "value": 1
          }
        ],
        "publish_cnt": 685,
        "video_views": 2966716,
        "rank": 27,
        "rank_diff": 59,
        "rank_diff_type": 1
      },
      {
        "hashtag_id": "80155649",
        "hashtag_name": "ティックトック",
        "country_info": {
          "id": "JP",
          "value": "Japan",
          "label": "JP"
        },
        "industry_info": {
          "id": 23000000000,
          "value": "News \u0026 Entertainment",
          "label": "label_23000000000"
        },
        "is_promoted": false,
        "trend": [
          {
            "time": 1772755200,
            "value": 0.79
          },
          {
            "time": 1772841600,
            "value": 0.69
          },
          {
            "time": 1772928000,
            "value": 0.61
          },
          {
            "time": 1773014400,
            "value": 0.51
          },
          {
            "time": 1773100800,
            "value": 0.97
          },
          {
            "time": 1773187200,
            "value": 1
          },
          {
            "time": 1773273600,
            "value": 0.5
          }
        ],
        "publish_cnt": 2042,
        "video_views": 7896261,
        "rank": 28,
        "rank_diff": 10,
        "rank_diff_type": 3
      },
      {
        "hashtag_id": "1324395",
        "hashtag_name": "coloringbook",
        "country_info": {
          "id": "JP",
          "value": "Japan",
          "label": "JP"
        },
        "is_promoted": false,
        "trend": [
          {
            "time": 1772755200,
            "value": 0.14
          },
          {
            "time": 1772841600,
            "value": 0.86
          },
          {
            "time": 1772928000,
            "value": 0.84
          },
          {
            "time": 1773014400,
            "value": 0.1
          },
          {
            "time": 1773100800,
            "value": 0.1
          },
          {
            "time": 1773187200,
            "value": 1
          },
          {
            "time": 1773273600,
            "value": 0.56
          }
        ],
        "creators": [
          {
            "nick_name": "Renan Zimmer",
            "avatar_url": "https://p16-sign-va.tiktokcdn.com/tos-maliva-avt-0068/8aaeae80513a4ac208d4e39e49702ce7~tplv-tiktokx-cropcenter:100:100.png?dr=14579\u0026refresh_token=8c4e3f4d\u0026x-expires=1773586800\u0026x-signature=fBHShQCJ5egn6vqGDjVmHGKujmY%3D\u0026t=4d5b0474\u0026ps=13740610\u0026shp=a5d48078\u0026shcp=317596d8\u0026idc=my3"
          }
        ],
        "publish_cnt": 1831,
        "video_views": 1837214,
        "rank": 29,
        "rank_diff_type": 4
      },
      {
        "hashtag_id": "208127",
        "hashtag_name": "fishinglife",
        "country_info": {
          "id": "JP",
          "value": "Japan",
          "label": "JP"
        },
        "industry_info": {
          "id": 28000000000,
          "value": "Sports \u0026 Outdoor",
          "label": "label_28000000000"
        },
        "is_promoted": false,
        "trend": [
          {
            "time": 1772755200,
            "value": 0.17
          },
          {
            "time": 1772841600,
            "value": 0.15
          },
          {
            "time": 1772928000,
            "value": 0.18
          },
          {
            "time": 1773014400,
            "value": 0.18
          },
          {
            "time": 1773100800,
            "value": 0.46
          },
          {
            "time": 1773187200,
            "value": 1
          },
          {
            "time": 1773273600,
            "value": 0.83
          }
        ],
        "publish_cnt": 623,
        "video_views": 2475569,
        "rank": 30,
        "rank_diff": 35,
        "rank_diff_type": 1
      },
      {
        "hashtag_id": "1602975635833862",
        "hashtag_name": "稲葉浩志",
        "country_info": {
          "id": "JP",
          "value": "Japan",
          "label": "JP"
        },
        "industry_info": {
          "id": 23000000000,
          "value": "News \u0026 Entertainment",
          "label": "label_23000000000"
        },
        "is_promoted": false,
        "trend": [
          {
            "time": 1772755200,
            "value": 0.46
          },
          {
            "time": 1772841600,
            "value": 0.66
          },
          {
            "time": 1772928000,
            "value": 0.63
          },
          {
            "time": 1773014400,
            "value": 0.58
          },
          {
            "time": 1773100800,
            "value": 0.53
          },
          {
            "time": 1773187200,
            "value": 0.97
          },
          {
            "time": 1773273600,
            "value": 1
          }
        ],
        "publish_cnt": 697,
        "video_views": 7658572,
        "rank": 31,
        "rank_diff_type": 4
      },
      {
        "hashtag_id": "53411706",
        "hashtag_name": "タッチ",
        "country_info": {
          "id": "JP",
          "value": "Japan",
          "label": "JP"
        },
        "is_promoted": false,
        "trend": [
          {
            "time": 1772755200,
            "value": 0.4
          },
          {
            "time": 1772841600,
            "value": 0.64
          },
          {
            "time": 1772928000,
            "value": 0.73
          },
          {
            "time": 1773014400,
            "value": 0.69
          },
          {
            "time": 1773100800,
            "value": 0.58
          },
          {
            "time": 1773187200,
            "value": 1
          },
          {
            "time": 1773273600,
            "value": 0.99
          }
        ],
        "publish_cnt": 690,
        "video_views": 6753923,
        "rank": 32,
        "rank_diff_type": 4
      },
      {
        "hashtag_id": "35313009",
        "hashtag_name": "地震",
        "country_info": {
          "id": "JP",
          "value": "Japan",
          "label": "JP"
        },
        "is_promoted": false,
        "trend": [
          {
            "time": 1772755200,
            "value": 0.16
          },
          {
            "time": 1772841600,
            "value": 0.15
          },
          {
            "time": 1772928000,
            "value": 0.2
          },
          {
            "time": 1773014400,
            "value": 0.29
          },
          {
            "time": 1773100800,
            "value": 0.24
          },
          {
            "time": 1773187200,
            "value": 0.61
          },
          {
            "time": 1773273600,
            "value": 1
          }
        ],
        "trending_type": 1,
        "publish_cnt": 538,
        "video_views": 14291151,
        "rank": 33,
        "rank_diff_type": 4
      },
      {
        "hashtag_id": "128971",
        "hashtag_name": "memes",
        "country_info": {
          "id": "JP",
          "value": "Japan",
          "label": "JP"
        },
        "is_promoted": false,
        "trend": [
          {
            "time": 1772755200,
            "value": 0.55
          },
          {
            "time": 1772841600,
            "value": 0.59
          },
          {
            "time": 1772928000,
            "value": 0.51
          },
          {
            "time": 1773014400,
            "value": 0.49
          },
          {
            "time": 1773100800,
            "value": 0.44
          },
          {
            "time": 1773187200,
            "value": 1
          },
          {
            "time": 1773273600,
            "value": 0.48
          }
        ],
        "creators": [
          {
            "nick_name": "bruno☕🐦",
            "avatar_url": "https://p16-sign-va.tiktokcdn.com/tos-maliva-avt-0068/455515365a157ad93614629eeb970aea~tplv-tiktokx-cropcenter:100:100.png?dr=14579\u0026refresh_token=c0ed2eb7\u0026x-expires=1773586800\u0026x-signature=OI22Dq7P6FsgfHf1JguqDUPq3lw%3D\u0026t=4d5b0474\u0026ps=13740610\u0026shp=a5d48078\u0026shcp=317596d8\u0026idc=my3"
          },
          {
            "nick_name": "СЛАВА МОРОЗОВ",
            "avatar_url": "https://p77-sign-sg.tiktokcdn.com/tos-alisg-avt-0068/0526f6d8b8bf4cd62457616ef68b848a~tplv-tiktokx-cropcenter:100:100.png?dr=14579\u0026refresh_token=c2fe8c5b\u0026x-expires=1773586800\u0026x-signature=Ni138yMDrGdRmnSrwtTmDg%2BDp1I%3D\u0026t=4d5b0474\u0026ps=13740610\u0026shp=a5d48078\u0026shcp=317596d8\u0026idc=my3"
          },
          {
            "nick_name": "Julio Gomes",
            "avatar_url": "https://p16-sign-va.tiktokcdn.com/tos-maliva-avt-0068/6aba9b53ad6e1fc0993f4d7e0c547db1~tplv-tiktokx-cropcenter:100:100.png?dr=14579\u0026refresh_token=8ccb09ea\u0026x-expires=1773586800\u0026x-signature=6r0aZ7Dtgu0vYJR5x0DUJ8bSYUg%3D\u0026t=4d5b0474\u0026ps=13740610\u0026shp=a5d48078\u0026shcp=317596d8\u0026idc=my3"
          }
        ],
        "publish_cnt": 789,
        "video_views": 8491131,
        "rank": 34,
        "rank_diff_type": 4
      },
      {
        "hashtag_id": "1622581136183318",
        "hashtag_name": "tiktokpresents",
        "country_info": {
          "id": "JP",
          "value": "Japan",
          "label": "JP"
        },
        "is_promoted": false,
        "trend": [
          {
            "time": 1772755200,
            "value": 0.26
          },
          {
            "time": 1772841600,
            "value": 0.51
          },
          {
            "time": 1772928000,
            "value": 0.66
          },
          {
            "time": 1773014400,
            "value": 0.65
          },
          {
            "time": 1773100800,
            "value": 0.91
          },
          {
            "time": 1773187200,
            "value": 1
          },
          {
            "time": 1773273600,
            "value": 0.7
          }
        ],
        "creators": [
          {
            "nick_name": "SOTHEANY❄️☃️🍎",
            "avatar_url": "https://p77-sign-sg.tiktokcdn.com/tos-alisg-avt-0068/c45bacd79fb38dda7a96373071201b59~tplv-tiktokx-cropcenter:100:100.png?dr=14579\u0026refresh_token=5e541a14\u0026x-expires=1773586800\u0026x-signature=aSlwNTqHIAboop4q5nZkCbwm9B8%3D\u0026t=4d5b0474\u0026ps=13740610\u0026shp=a5d48078\u0026shcp=317596d8\u0026idc=my3"
          }
        ],
        "publish_cnt": 453,
        "video_views": 22364117,
        "rank": 35,
        "rank_diff_type": 4
      },
      {
        "hashtag_id": "3161",
        "hashtag_name": "311",
        "country_info": {
          "id": "JP",
          "value": "Japan",
          "label": "JP"
        },
        "is_promoted": false,
        "trend": [
          {
            "time": 1772755200,
            "value": 0.04
          },
          {
            "time": 1772841600,
            "value": 0.02
          },
          {
            "time": 1772928000,
            "value": 0.05
          },
          {
            "time": 1773014400,
            "value": 0.08
          },
          {
            "time": 1773100800,
            "value": 0.09
          },
          {
            "time": 1773187200,
            "value": 0.49
          },
          {
            "time": 1773273600,
            "value": 1
          }
        ],
        "publish_cnt": 576,
        "video_views": 6958148,
        "rank": 36,
        "rank_diff_type": 4
      },
      {
        "hashtag_id": "7510146341008310295",
        "hashtag_name": "映画简介",
        "country_info": {
          "id": "JP",
          "value": "Japan",
          "label": "JP"
        },
        "industry_info": {
          "id": 23000000000,
          "value": "News \u0026 Entertainment",
          "label": "label_23000000000"
        },
        "is_promoted": false,
        "trend": [
          {
            "time": 1772755200,
            "value": 0.72
          },
          {
            "time": 1772841600,
            "value": 0.63
          },
          {
            "time": 1772928000,
            "value": 0.59
          },
          {
            "time": 1773014400,
            "value": 0.47
          },
          {
            "time": 1773100800,
            "value": 0.98
          },
          {
            "time": 1773187200,
            "value": 1
          },
          {
            "time": 1773273600,
            "value": 0.44
          }
        ],
        "publish_cnt": 1818,
        "video_views": 7093556,
        "rank": 37,
        "rank_diff": 13,
        "rank_diff_type": 3
      },
      {
        "hashtag_id": "7376875032191959048",
        "hashtag_name": "ゲームスターズ",
        "country_info": {
          "id": "JP",
          "value": "Japan",
          "label": "JP"
        },
        "industry_info": {
          "id": 25000000000,
          "value": "Games",
          "label": "label_25000000000"
        },
        "is_promoted": false,
        "trend": [
          {
            "time": 1772755200,
            "value": 0.09
          },
          {
            "time": 1772841600,
            "value": 0.09
          },
          {
            "time": 1772928000,
            "value": 0.16
          },
          {
            "time": 1773014400,
            "value": 0.15
          },
          {
            "time": 1773100800,
            "value": 0.19
          },
          {
            "time": 1773187200,
            "value": 0.58
          },
          {
            "time": 1773273600,
            "value": 1
          }
        ],
        "publish_cnt": 617,
        "video_views": 10135899,
        "rank": 38,
        "rank_diff_type": 4
      },
      {
        "hashtag_id": "1619253577941009",
        "hashtag_name": "キャンスタ",
        "country_info": {
          "id": "JP",
          "value": "Japan",
          "label": "JP"
        },
        "industry_info": {
          "id": 14000000000,
          "value": "Beauty \u0026 Personal Care",
          "label": "label_14000000000"
        },
        "is_promoted": false,
        "trend": [
          {
            "time": 1772755200,
            "value": 0.83
          },
          {
            "time": 1772841600,
            "value": 0.94
          },
          {
            "time": 1772928000,
            "value": 0.79
          },
          {
            "time": 1773014400,
            "value": 0.87
          },
          {
            "time": 1773100800,
            "value": 0.81
          },
          {
            "time": 1773187200,
            "value": 1
          },
          {
            "time": 1773273600,
            "value": 0.89
          }
        ],
        "publish_cnt": 614,
        "video_views": 5074407,
        "rank": 39,
        "rank_diff_type": 4
      },
      {
        "hashtag_id": "88274574",
        "hashtag_name": "sajjanrajvaidya",
        "country_info": {
          "id": "JP",
          "value": "Japan",
          "label": "JP"
        },
        "is_promoted": false,
        "trend": [
          {
            "time": 1772755200,
            "value": 0.17
          },
          {
            "time": 1772841600,
            "value": 0.13
          },
          {
            "time": 1772928000,
            "value": 0.12
          },
          {
            "time": 1773014400,
            "value": 0.17
          },
          {
            "time": 1773100800,
            "value": 0.19
          },
          {
            "time": 1773187200,
            "value": 0.92
          },
          {
            "time": 1773273600,
            "value": 1
          }
        ],
        "publish_cnt": 630,
        "video_views": 1052592,
        "rank": 40,
        "rank_diff_type": 4
      }
    ],
    "pagination": {
      "page": 2,
      "size": 20,
      "total": 100,
      "has_more": true
    }
  }
}
